{"data":[{"id":34541863,"name":"\"A\" Cell Breeding Device","type":"Spell Card","frameType":"spell","desc":"During each of your Standby Phases, put 1 A-Counter on 1 face-up monster your opponent controls.","race":"Continuous","archetype":"Alien","card_sets":[{"set_name":"Force of the Breaker","set_code":"FOTB-EN043","set_rarity":"Common","set_rarity_code":"(C)","set_price":"1.31"}],"card_images":[{"id":34541863,"image_url":"https://images.ygoprodeck.com/images/cards/34541863.jpg","image_url_small":"https://images.ygoprodeck.com/images/cards_small/34541863.jpg","image_url_cropped":"https://images.ygoprodeck.com/images/cards_cropped/34541863.jpg"}],"card_prices":[{"cardmarket_price":"0.05","tcgplayer_price":"0.14","ebay_price":"4.99","amazon_price":"24.45","coolstuffinc_price":"0.25"}]},{"id":64163367,"name":"\"A\" Cell Incubator","type":"Spell Card","frameType":"spell","desc":"Each time an A-Counter(s) is removed from play by a card effect, place 1 A-Counter on this card. When this card is destroyed, distribute the A-Counters on this card among face-up monsters.","race":"Continuous","archetype":"Alien","card_sets":[{"set_name":"Gladiator's Assault","set_code":"GLAS-EN062","set_rarity":"Common","set_rarity_code":"(C)","set_price":"2.1"}],"card_images":[{"id":64163367,"image_url":"https://images.ygoprodeck.com/images/cards/64163367.jpg","image_url_small":"https://images.ygoprodeck.com/images/cards_small/64163367.jpg","image_url_cropped":"https://images.ygoprodeck.com/images/cards_cropped/64163367.jpg"}],"card_prices":[{"cardmarket_price":"0.04","tcgplayer_price":"0.22","ebay_price":"1.15","amazon_price":"0.50","coolstuffinc_price":"0.25"}]},{"id":91231901,"name":"\"A\" Cell Recombination Device","type":"Spell Card","frameType":"spell","desc":"Target 1 face-up monster on the field; send 1 \"Alien\" monster from your Deck to the Graveyard, and if you do, place A-Counters on that monster equal to the Level of the sent monster. During your Main Phase, except the turn this card was sent to the Graveyard: You can banish this card from your Graveyard; add 1 \"Alien\" monster from your Deck to your hand.","race":"Quick-Play","archetype":"Alien","card_sets":[{"set_name":"Invasion: Vengeance","set_code":"INOV-EN063","set_rarity":"Common","set_rarity_code":"(C)","set_price":"1.12"}],"card_images":[{"id":91231901,"image_url":"https://images.ygoprodeck.com/images/cards/91231901.jpg","image_url_small":"https://images.ygoprodeck.com/images/cards_small/91231901.jpg","image_url_cropped":"https://images.ygoprodeck.com/images/cards_cropped/91231901.jpg"}],"card_prices":[{"cardmarket_price":"0.17","tcgplayer_price":"0.21","ebay_price":"0.99","amazon_price":"0.50","coolstuffinc_price":"0.49"}]},{"id":73262676,"name":"\"A\" Cell Scatter Burst","type":"Spell Card","frameType":"spell","desc":"Select 1 face-up \"Alien\" monster you control. Destroy it and distribute new A-Counters equal to its Level among your opponent's face-up monsters.","race":"Quick-Play","archetype":"Alien","card_sets":[{"set_name":"Strike of Neos","set_code":"STON-EN041","set_rarity":"Common","set_rarity_code":"(C)","set_price":"1.13"}],"card_images":[{"id":73262676,"image_url":"https://images.ygoprodeck.com/images/cards/73262676.jpg","image_url_small":"https://images.ygoprodeck.com/images/cards_small/73262676.jpg","image_url_cropped":"https://images.ygoprodeck.com/images/cards_cropped/73262676.jpg"}],"card_prices":[{"cardmarket_price":"0.11","tcgplayer_price":"0.16","ebay_price":"0.99","amazon_price":"9.76","coolstuffinc_price":"0.25"}]},{"id":101201056,"name":"\"Infernoble Arms - Almace\"","type":"Spell Card","frameType":"spell","desc":"While this card is equipped to a monster: You can equip 1 \"Infernoble Arms\" Equip Spell from your Deck or GY to an appropriate monster you control, except \"\"Infernoble Arms - Almace\"\", then destroy this card. If this card is sent to the GY because the equipped monster is sent to the GY: You can target 1 of your FIRE Warrior monsters that is banished or in your GY; add it to your hand. You can only use 1 of these effects of \"\"Infernoble Arms - Almace\"\" per turn, and only once that turn.","race":"Equip","archetype":"Noble Knight","card_images":[{"id":101201056,"image_url":"https://images.ygoprodeck.com/images/cards/101201056.jpg","image_url_small":"https://images.ygoprodeck.com/images/cards_small/101201056.jpg","image_url_cropped":"https://images.ygoprodeck.com/images/cards_cropped/101201056.jpg"}],"card_prices":[{"cardmarket_price":"0.00","tcgplayer_price":"0.00","ebay_price":"0.00","amazon_price":"0.00","coolstuffinc_price":"0.00"}]}],"meta":{"current_rows":5,"total_rows":12451,"rows_remaining":12446,"total_pages":2490,"pages_remaining":2490,"next_page":"https://db.ygoprodeck.com/api/v7/cardinfo.php?num=5&offset=5","next_page_offset":5}}